Programação Funcional em R na Geologia
…
.panel1-my_cars-auto[

```r
gm_granite %>%
  select(Tectonic_setting,SiO2:P2O5) %>%
  drop_na() %>%
* group_by(Tectonic_setting)
```
]
 
.panel2-my_cars-auto[

```
# A tibble: 2,986 x 11
# Groups:   Tectonic_setting [9]
   Tectonic_setting  SiO2  TiO2 Al2O3  FeOt    MnO   MgO   CaO   K2O  Na2O P2O5 
   <chr>            <dbl> <dbl> <dbl> <dbl>  <dbl> <dbl> <dbl> <dbl> <dbl> <chr>
 1 OROGENIC BELT     65.4 0.827  17.1  4.91 0.0771 1.80   1.81  5.13  2.66 0.28~
 2 OROGENIC BELT     69.6 0.709  14.9  4.19 0.0540 1.63   1.44  5.02  2.22 0.22~
 3 OROGENIC BELT     70.6 0.571  15.3  2.82 0.0532 1.33   1.20  5.60  2.33 0.19~
 4 OROGENIC BELT     70.6 0.478  15.7  2.51 0.0407 0.978  1.31  5.28  2.88 0.20~
 5 OROGENIC BELT     70.7 0.532  15.3  2.54 0.0609 1.21   1.24  5.57  2.64 0.22~
 6 OROGENIC BELT     71.0 0.484  15.5  2.47 0.0396 1.01   1.48  5.33  2.56 0.18~
 7 OROGENIC BELT     72.4 0.470  14.3  2.68 0.0422 1.03   1.09  5.05  2.75 0.20~
 8 OROGENIC BELT     73.2 0.428  14.4  2.40 0.0605 0.769  1.06  5.04  2.46 0.21~
 9 OROGENIC BELT     73.2 0.363  14.4  2.25 0.0211 0.678  1.10  5.05  2.86 0.15~
10 OROGENIC BELT     74.8 0.530  13.5  2.73 0.0472 1.18   1.43  3.28  2.30 0.18~
# ... with 2,976 more rows
```
…
```r
gm_granite %>%
  select(Tectonic_setting,SiO2:P2O5) %>%
  drop_na() %>%
  group_by(Tectonic_setting) %>%
* mutate(across(cols=SiO2:P2O5,
*               .fns = as.double))
```
]
 
.panel2-my_cars-auto[

```
# A tibble: 2,986 x 11
# Groups:   Tectonic_setting [9]
   Tectonic_setting  SiO2  TiO2 Al2O3  FeOt    MnO   MgO   CaO   K2O  Na2O  P2O5
   <chr>            <dbl> <dbl> <dbl> <dbl>  <dbl> <dbl> <dbl> <dbl> <dbl> <dbl>
 1 OROGENIC BELT     65.4 0.827  17.1  4.91 0.0771 1.80   1.81  5.13  2.66 0.288
 2 OROGENIC BELT     69.6 0.709  14.9  4.19 0.0540 1.63   1.44  5.02  2.22 0.221
 3 OROGENIC BELT     70.6 0.571  15.3  2.82 0.0532 1.33   1.20  5.60  2.33 0.197
 4 OROGENIC BELT     70.6 0.478  15.7  2.51 0.0407 0.978  1.31  5.28  2.88 0.200
 5 OROGENIC BELT     70.7 0.532  15.3  2.54 0.0609 1.21   1.24  5.57  2.64 0.227
 6 OROGENIC BELT     71.0 0.484  15.5  2.47 0.0396 1.01   1.48  5.33  2.56 0.186
 7 OROGENIC BELT     72.4 0.470  14.3  2.68 0.0422 1.03   1.09  5.05  2.75 0.203
 8 OROGENIC BELT     73.2 0.428  14.4  2.40 0.0605 0.769  1.06  5.04  2.46 0.218
 9 OROGENIC BELT     73.2 0.363  14.4  2.25 0.0211 0.678  1.10  5.05  2.86 0.159
10 OROGENIC BELT     74.8 0.530  13.5  2.73 0.0472 1.18   1.43  3.28  2.30 0.181
# ... with 2,976 more rows
```
…
.panel2-my_cars-auto[

```
# A tibble: 29,860 x 3
# Groups:   Tectonic_setting [9]
   Tectonic_setting Major_element  values
   <chr>            <chr>           <dbl>
 1 OROGENIC BELT    SiO2          65.4   
 2 OROGENIC BELT    TiO2           0.827 
 3 OROGENIC BELT    Al2O3         17.1   
 4 OROGENIC BELT    FeOt           4.91  
 5 OROGENIC BELT    MnO            0.0771
 6 OROGENIC BELT    MgO            1.80  
 7 OROGENIC BELT    CaO            1.81  
 8 OROGENIC BELT    K2O            5.13  
 9 OROGENIC BELT    Na2O           2.66  
10 OROGENIC BELT    P2O5           0.288 
# ... with 29,850 more rows
```
…
