tst_1.knit
…
---
count: false

.panel1-teste-auto[

```r
read.csv("petrophysics_bertolini_2020.csv", sep=";") %>%
* as_tibble()
```
]
 
.panel2-teste-auto[

```
# A tibble: 72 × 29
   Sample     X well  depth    h1    h2    h3    h4    h5    h6    h7    h8    h9   h10
   <chr>  <int> <chr> <dbl> <dbl> <dbl> <dbl> <dbl> <dbl> <dbl> <dbl> <dbl> <dbl> <dbl>
 1 RB         1 TG-27  1.25  26.0  26.9  25.7  26.6  25.5  25.9  26.6  25.3  26.4  26.5
 2 RB         2 TG-27  1.9   44.9  44.9  45.0  44.9  44.8  44.8  44.9  44.9  45.0  44.9
 3 RB         3 TG-27  2.9   44.0  43.5  43.5  43.0  42.8  43.4  43.6  43.4  43.6  43.7
 4 RB         4 TG-27  3.9   47.4  46.7  46.4  46.1  46.5  47.1  47.4  48.8  47.8  47.7
 5 RB         5 TG-27  4.9   45.6  45.4  45.3  45.3  45.3  45.2  45.2  45.2  45.3  45.4
 6 RB         0 TG-27 89.5   46.0  45.9  45.6  45.2  45.3  46.1  46.0  46.0  46.0  45.0
 7 RB         6 TG-27 97.2   66.3  66.4  66.9  66.2  66.2  66.1  66.3  66.2  66.4  66.3
 8 RB         7 TG-27 97.7   48.3  48.5  48.4  48.1  48    48.4  48.3  48.3  48.3  48.0
 9 RB         8 TG-27 98.3   39.8  40.0  39.8  39.7  39.8  39.7  39.9  39.9  39.7  39.8
10 RB         9 TG-27 98.6   47.8  47.8  47.9  47.4  47.5  47.8  47.7  47.1  47.5  47.7
# … with 62 more rows, and 15 more variables: h_mean <dbl>, pw_t1 <dbl>, pw_t2 <dbl>,
#   pw_t3 <dbl>, sw_t1 <dbl>, sw_t2 <dbl>, p_wave <dbl>, s_wave <dbl>, dry_mass <dbl>,
#   subm_mass <dbl>, sat_mass <dbl>, bulk_vol <dbl>, pore_volum <dbl>, porosity <dbl>,
#   density <dbl>
```
…
.panel1-teste-auto[

```r
read.csv("petrophysics_bertolini_2020.csv", sep=";") %>%
  as_tibble() %>%
* drop_na(p_wave,s_wave)
```
]
 
.panel2-teste-auto[

```
# A tibble: 69 × 29
   Sample     X well  depth    h1    h2    h3    h4    h5    h6    h7    h8    h9   h10
   <chr>  <int> <chr> <dbl> <dbl> <dbl> <dbl> <dbl> <dbl> <dbl> <dbl> <dbl> <dbl> <dbl>
 1 RB         1 TG-27  1.25  26.0  26.9  25.7  26.6  25.5  25.9  26.6  25.3  26.4  26.5
 2 RB         2 TG-27  1.9   44.9  44.9  45.0  44.9  44.8  44.8  44.9  44.9  45.0  44.9
 3 RB         3 TG-27  2.9   44.0  43.5  43.5  43.0  42.8  43.4  43.6  43.4  43.6  43.7
 4 RB         4 TG-27  3.9   47.4  46.7  46.4  46.1  46.5  47.1  47.4  48.8  47.8  47.7
 5 RB         5 TG-27  4.9   45.6  45.4  45.3  45.3  45.3  45.2  45.2  45.2  45.3  45.4
 6 RB         0 TG-27 89.5   46.0  45.9  45.6  45.2  45.3  46.1  46.0  46.0  46.0  45.0
 7 RB         6 TG-27 97.2   66.3  66.4  66.9  66.2  66.2  66.1  66.3  66.2  66.4  66.3
 8 RB         7 TG-27 97.7   48.3  48.5  48.4  48.1  48    48.4  48.3  48.3  48.3  48.0
 9 RB         8 TG-27 98.3   39.8  40.0  39.8  39.7  39.8  39.7  39.9  39.9  39.7  39.8
10 RB         9 TG-27 98.6   47.8  47.8  47.9  47.4  47.5  47.8  47.7  47.1  47.5  47.7
# … with 59 more rows, and 15 more variables: h_mean <dbl>, pw_t1 <dbl>, pw_t2 <dbl>,
#   pw_t3 <dbl>, sw_t1 <dbl>, sw_t2 <dbl>, p_wave <dbl>, s_wave <dbl>, dry_mass <dbl>,
#   subm_mass <dbl>, sat_mass <dbl>, bulk_vol <dbl>, pore_volum <dbl>, porosity <dbl>,
#   density <dbl>
```
…
